1 1 1
1 2 2
2 2 2
2 1 2
2 3 8
1 4 8
1 5 8
1 6 9
1 7 17
10 1 20
6384 4224 262
7073 9271 260
2175 4191 238
2499 3074 217
8378 3374 262
8986 2094 262
9190 3232 262
7705 1501 262
7165 8807 252
7154 2974 262
4001 3373 238
2962 9839 262
4936 3054 238
8478 2633 262
1902 3811 238
4922 5849 236
6930 2424 262
3282 1708 217
9062 3993 262
8572 3553 262
6960 3111 262
519 518 124
105 9487 262
9853 6130 262
7336 8799 252
2017 1173 180
6761 6720 182
9263 4331 262
6915 7846 257
5232 6407 262
5683 5526 236
6087 4293 236
9988 992 262
6363 9833 260
409 9457 262
1436 4345 238
9491 9773 198
2414 782 183
3306 4792 238
7297 3532 262
4666 9098 262
3551 5729 238
1069 5236 238
6314 565 262
3034 671 217
3007 5597 238
1425 5512 238
9332 2517 262
7634 9188 252
5367 6575 262
4078 8749 262
5502 5379 192
4190 3606 238
583 5714 238
8577 1277 262
4450 8630 262
6512 6792 244
7367 8429 252
4881 1868 238
2846 9512 262
3886 8079 262
8734 367 262
9097 3996 262
5378 9126 262
615 6733 262
3538 241 217
4997 6544 262
8318 5072 262
3556 782 217
9557 3658 262
4548 3347 238
9705 2418 262
5283 7625 262
4390 3323 238
6454 9798 260
9107 3681 262
8883 2340 262
4418 3171 238
7760 1091 262
5305 5844 236
7074 8432 252
3212 6249 262
1955 4868 238
364 3375 217
9585 6516 260
3176 7011 262
7201 2720 262
5282 5358 192
8267 736 262
8302 3524 262
1683 230 182
376 663 145
2956 9890 262
6168 3673 238
5847 6354 262
1445 2503 209
2008 3004 217
8625 181 262
9437 2178 262
5724 7783 262
4969 2925 238
1767 1812 162
9708 7050 260
334 1717 182
7097 7051 151
2284 2309 152
9290 5603 262
4140 7039 262
6028 9278 262
8862 1122 262
1154 6025 238
5371 4283 215
1709 1157 182
8257 9444 260
9303 4512 262
9834 3397 262
4284 1168 238
9258 9009 260
5331 5507 192
3924 2602 238
2851 6637 262
8000 8734 234
3624 6770 262
9317 994 262
1648 5896 238
2982 6507 262
5504 4509 210
7902 7933 190
7445 7739 208
3220 9509 262
4928 1797 238
4651 7692 262
2973 3619 199
4401 9641 262
1424 2668 209
4144 4175 158
7007 5656 262
1533 143 182
9272 6677 260
7871 4556 262
1955 7882 262
7014 8071 252
5008 7612 262
1566 7115 262
4152 3300 238
9830 662 262
6986 9877 260
5970 5844 187
189 6124 238
1309 4909 238
2589 4972 238
3090 5604 238
2210 1509 180
842 899 179
2237 4829 238
9611 4395 262
9283 6447 260
1287 9125 262
6023 5294 236
7484 5834 262
3672 3905 238
7084 6602 257
5159 2593 238
2972 2349 217
2335 1198 183
7196 3723 262
5692 3349 238
4920 1192 238
7950 2165 262
966 9698 262
3283 4233 238
7534 1934 262
413 8250 262
2719 9495 262
7035 3468 262
8475 5069 262
5168 4874 210
7037 4685 262
2640 6436 262
7548 4797 262
2550 9002 262
6429 9421 260
4715 9395 262
1445 3760 238
9612 9120 260
2654 976 209
3439 3423 150
4147 3554 238
7978 2678 262
5683 888 238
1442 2776 209
2877 7931 262
1228 3942 238
818 3354 217
3014 8516 262
8004 7014 252
4857 534 238
4456 3729 215
5999 1555 238
806 5460 238
9209 2333 262
1239 4581 238
1679 6860 262
3243 2076 217
406 7073 262
1211 983 182
1162 3652 217
9544 1552 262
7954 8622 252
4058 230 238
1055 8508 262
820 3987 238
6028 3952 236
979 7558 262
906 4486 238
1826 8758 262
5835 5056 236
6823 5959 262
7130 9885 260
5375 3275 238
5330 3767 215
4059 6075 236
3054 7699 262
3557 1988 217
6712 9451 260
1874 6421 262
4162 9236 262
4721 2393 238
9819 2816 262
1568 1988 180
3763 9105 262
2312 7634 262
6954 6597 257
4390 8656 262
6938 3587 262
2289 6081 238
7099 4713 262
4682 7595 262
6656 5602 262
6184 7869 257
558 7816 262
9961 2653 262
7633 875 262
932 821 179
4735 3184 238
8983 8076 247
7069 1203 262
1149 9241 262
2398 3169 217
4658 9439 262
1865 9732 262
6503 7727 257
8684 8758 216
7610 7036 239
7921 5760 262
3100 406 217
3775 8051 262
2459 8344 262
691 2628 209
434 9659 262
6456 2673 262
8059 6856 257
1842 1729 180
1206 6220 262
796 5311 238
7079 8515 252
6545 5491 262
2151 2506 209
7083 9220 252
9243 1587 262
8871 1746 262
6309 7379 257
1357 5553 238
8958 3221 262
5561 939 238
9276 4062 262
7667 1094 262
4520 6085 236
2691 6967 262
259 6388 262
3008 3645 199
5196 9469 262
6364 9537 260
5958 4550 236
4320 8461 262
8855 1727 262
1274 5021 238
4253 7856 262
7754 5645 262
8952 7075 252
5477 7166 262
7640 4617 262
3232 7915 262
8363 2099 262
1830 1452 180
8290 2947 262
8568 4015 262
7292 4956 262
1515 1106 182
5949 8269 262
3204 370 217
3632 6422 262
3855 867 238
4191 515 238
4341 8325 262
2908 4121 238
2122 899 182
6539 8206 257
4443 6329 262
3979 6253 262
7705 5160 262
4998 9702 262
3589 736 217
5963 7142 262
3849 675 238
6279 2493 262
8169 7527 252
6853 9123 257
5609 1137 238
589 7738 262
8109 8004 190
156 2314 183
9369 5927 262
9988 868 262
1132 3664 217
415 1138 179
541 6186 262
6753 7846 257
6678 4664 262
2474 7819 262
1637 4299 238
8276 5841 262
2912 5655 238
9347 6837 260
6871 6173 244
8300 7072 252
2363 8913 262
2958 1021 217
8941 2790 262
3645 1418 217
7510 6106 262
5786 6421 262
1061 9636 262
636 3241 217
6518 4793 262
2795 4854 238
5419 3890 215
8948 9576 260
283 2474 209
2017 680 182
7424 9361 260
4158 5790 236
9895 1069 262
216 7091 262
8895 7469 252
2398 2785 209
4173 7704 262
8879 1203 262
6138 8266 262
5657 6836 262
1155 7080 262
2605 4798 238
4630 4242 215
595 7665 262
4962 5544 205
5578 5500 236
658 8147 262
2523 7664 262
9223 3348 262
1660 2433 183
3661 4083 238
5262 5000 192
2368 4629 238
6761 5067 262
9923 3467 262
871 7967 262
291 1113 179
3444 4894 238
1195 7460 262
6090 9300 262
5121 7186 262
3394 6948 262
316 4848 238
3508 4987 238
4411 3341 238
3185 6519 262
3784 659 238
3688 3367 194
5713 9193 262
8302 7992 190
7351 9228 252
7158 481 262
7927 8037 252
6663 6987 257
271 4772 238
3940 154 238
7224 4939 262
3667 7358 262
2217 9499 262
8065 4218 262
5586 9274 262
3226 4579 238
9598 6193 260
6627 6749 182
5192 8680 262
2440 5073 238
7426 1843 262
5953 1694 238
9345 3813 262
8890 2473 262
123 6212 262
9373 9192 260
1856 3550 217
6140 6171 262
811 3960 238
4577 6005 236
8186 734 262
5595 8290 262
1060 4635 238
413 2387 183
3445 6367 262
7195 237 262
256 1634 182
6528 7528 257
426 3668 217
6593 6247 244
2099 8979 262
9021 3066 262
301 8152 262
8632 1718 262
3434 423 217
3465 6164 238
547 1802 182
5067 6416 262
7295 4499 262
5012 3839 215
3060 6417 262
1976 9282 262
5482 8359 262
8721 5376 262
8224 1291 262
9967 4288 262
7286 8980 252
4995 2617 238
1994 9645 262
7889 8830 252
4788 7043 262
4609 808 238
3672 4040 238
5680 1814 238
9026 1856 262
7384 6182 257
8057 8905 234
1404 6479 262
2811 8376 262
283 882 179
6587 9375 260
3448 2884 217
5877 8650 262
2423 3799 238
9690 5996 262
6632 9889 260
561 649 145
1009 3025 217
752 9817 262
920 5542 238
9879 3118 262
5488 763 238
5270 133 238
2209 3625 217
1919 9047 262
1232 6628 262
4403 1699 238
4494 9578 262
3279 3970 238
7996 3093 262
5286 7590 262
5387 1619 238
8715 6832 257
4972 7006 262
3667 7334 262
2754 6062 238
2143 3349 217
6629 5577 262
565 2833 209
9884 599 262
7591 5949 262
434 6747 262
6745 3205 262
1493 7239 262
7820 8644 252
7389 8754 252
379 4196 238
9503 5025 262
8159 3035 262
7917 2850 262
6549 2704 262
1723 1499 180
2082 5973 238
8806 2345 262
16133 13346 271
11926 10048 268
12043 13078 263
10236 11112 268
12804 11689 263
10223 13705 276
10119 18148 279
18156 14114 279
11676 18805 279
11345 17862 279
12501 14410 276
16924 15558 266
14710 16163 271
16785 12014 276
10673 17843 279
15780 11880 276
10373 10362 149
13114 10785 268
15001 18419 279
15683 10539 276
15847 11467 276
16317 13923 271
18554 18360 261
17108 10631 276
12401 12442 157
10746 15807 276
16055 15182 253
15935 18963 279
13146 16925 276
17434 18130 279
10034 10197 224
15664 11462 276
15747 17323 266
10689 10720 193
11959 10754 268
13851 11938 276
18163 13422 279
11890 10998 237
11198 18507 279
17171 17863 279
12546 11370 263
15900 18483 279
11611 10755 268
18217 18988 261
15697 11121 276
12695 12382 263
17752 14211 279
12369 18891 279
12093 18536 279
14243 15635 271
11514 12485 263
17732 13970 279
14221 11866 276
17934 11419 279
10449 16889 276
18462 18361 230
11185 17172 276
12248 11862 250
12590 10519 268
11003 10436 268
16121 17774 279
18576 10946 279
15973 16552 266
15712 12206 276
18989 15525 279
16762 17076 266
16102 10636 276
10961 11700 268
18712 12956 279
13955 16711 271
14520 12586 276
15992 12609 276
10663 15671 276
13395 15850 271
18784 11145 279
16852 10486 276
13973 12800 276
14300 17368 271
14940 10626 276
12518 14854 276
10599 13775 276
13093 12575 263
10314 11618 268
16812 15227 266
13911 17741 279
17912 11444 279
13467 17905 279
18080 10225 279
12579 18652 279
14402 14238 196
18491 10422 279
16541 11148 276
14864 13069 276
13338 17804 279
17175 17572 235
14260 14792 271
12299 14905 276
16543 17919 279
12151 12950 263
12701 15477 276
12730 15387 276
16887 17001 204
10394 18527 279
17605 12435 276
10329 17098 276
10090 11503 268
12412 10506 268
11734 11721 131
16375 16252 204
13542 10421 276
16895 11862 276
17352 13379 271
11811 13091 263
10072 16327 276
14249 14279 196
18613 12055 279
18074 18915 261
18001 11651 279
16579 10912 276
15059 15141 222
18733 10079 279
11186 16747 276
12385 12750 263
11630 11131 237
14381 16591 271
16328 12191 276
14397 11969 276
12968 10326 268
13526 18381 279
18928 14344 279
11275 16040 276
11455 15550 276
12895 12432 263
14812 10888 276
15782 11787 276
16974 14392 271
12459 16368 276
11330 16456 276
11815 15898 276
12492 15913 276
10463 13714 276
15110 14622 271
18868 12086 279
18686 13293 279
18086 10685 279
13894 14306 196
12198 16578 276
16155 18892 279
12961 17673 279
12614 12811 201
16036 16896 266
18646 13425 279
10870 17211 276
17226 16953 235
15815 13334 271
11928 12732 263
11702 11806 175
15561 12565 276
15587 11643 276
18085 12711 279
11279 17583 276
12007 14630 276
14674 12765 276
12784 13560 276
15568 13297 271
17165 12616 276
13979 18538 279
10573 15045 276
11064 10737 268
11821 15614 276
16708 10653 276
14509 18508 279
15971 11801 276
11475 12308 250
16398 16931 266
16678 10967 276
10157 10471 255
10279 10592 255
16262 11027 276
12139 13528 276
18822 18844 168
14267 11839 276
11251 17262 276
17221 10154 276
12588 15799 276
13619 16084 271
17693 16969 279
12265 16355 276
15111 18332 279
14467 17391 271
16609 10133 276
18450 15959 279
17887 11505 279
15554 15672 253
18220 10432 279
13084 13198 245
18414 13806 279
17725 11469 279
12657 16605 276
13409 13867 245
12948 17749 279
17712 10447 279
13788 14337 258
16383 15915 253
11980 16254 276
10535 14005 276
18744 17389 279
10932 13031 268
12435 14176 276
15154 17982 279
11706 11222 237
18088 15420 279
12355 15164 276
18880 18266 261
16062 10176 276
13021 13239 245
18053 10196 279
10489 10230 255
13382 11430 276
12586 17473 276
18305 17307 279
18474 13145 279
17884 15653 279
16168 13299 271
14750 17066 271
13211 14221 276
18684 18722 199
14492 13086 276
11528 15340 276
18147 15130 279
10690 13235 268
10272 12406 268
15261 17254 266
13699 13456 245
12948 12709 201
18339 10593 279
13149 13392 276
17660 17572 279
10825 13199 268
11544 14638 276
12011 11692 250
18353 18954 261
11954 17360 276
18012 15981 279
13389 17796 279
13652 18856 279
11293 17570 276
12987 18750 279
11094 17018 276
14238 15951 271
16959 17796 279
12436 15988 276
12108 16432 276
15452 11852 276
12431 15333 276
15839 15376 253
17064 11495 276
16258 13342 271
16940 10146 276
16990 10483 276
18544 10178 279
16095 11184 276
16517 14202 271
15135 15311 209
14525 10023 276
17580 14060 271
10908 16324 276
14613 17091 271
16703 15703 266
16747 12983 276
13077 11991 263
16489 15990 266
17249 14702 271
17448 17824 279
18066 14636 279
14116 14497 209
17458 11043 276
15224 13359 271
18549 16347 279
14695 10572 276
11831 11105 237
12937 14494 276
15545 16863 266
16591 14865 271
18955 18673 261
12964 13123 201
18018 17121 279
18756 11596 279
17757 16988 279
16711 15555 266
13727 18756 279
11710 16844 276
13518 16446 271
10935 12015 268
16933 11648 276
10054 11840 268
15192 16692 266
18159 17365 279
15927 10916 276
18964 10406 279
14263 11056 276
15652 16474 266
13166 10388 268
14941 15904 271
10062 16552 276
12230 12021 250
15905 16424 253
14711 14996 240
17593 17564 248
12747 11795 263
12895 17634 276
18587 11151 279
12861 15024 276
14063 12229 276
15050 18216 279
16318 17843 279
12609 15548 276
15063 13314 271
15150 15951 253
12890 16581 276
13920 13399 258
11455 15592 276
12463 12747 263
16679 10954 276
18248 16726 279
18301 16819 279
17956 16587 279
18647 16711 279
11771 11383 237
11888 18754 279
18893 12008 279
12876 10379 268
14331 11981 276
12122 12471 263
10240 10723 255
15270 10663 276
16522 16527 160
18523 13919 279
16340 11646 276
12555 13659 276
12831 13772 276
15223 15215 134
14188 17451 271
14126 11226 276
10994 18223 279
15300 13278 271
13552 13417 245
15220 18150 279
17934 17713 248
18482 18191 248
12322 12204 188
17209 14097 271
18674 18110 261
10912 18854 279
17067 17472 235
12950 10852 268
14501 18947 279
12462 13162 263
17624 18092 279
18769 14353 279
15699 17718 279
13382 10291 276
13353 14722 271
17619 18789 279
16886 10826 276
16000 18090 279
16639 12349 276
10934 12295 268
12809 15996 276
10858 16292 276
10344 11667 268
15034 17707 279
10257 18062 279
11943 12410 263
16631 18062 279
14172 11496 276
16896 11401 276
16003 14643 271
10722 11523 268
11567 13667 276
15714 15565 253
11036 16583 276
11534 12585 263
17810 17520 279
13932 18779 279
11310 15358 276
12283 14175 276
16659 12285 276
15097 14104 271
10281 15706 276
14842 18216 279
11944 10193 268
12868 14154 276
16773 15023 271
16994 13943 271
14045 17367 271
10245 14212 276
10162 14096 276
12865 12941 170
14292 10281 276
17215 18531 279
12035 14232 276
12870 12263 263
15408 16258 253
12641 15990 276
10864 14528 276
14005 18218 279
10286 10534 255
11779 14765 276
15778 13949 271
14614 13230 276
16268 14517 271
14728 15772 271
14201 14584 209
16860 11995 276
10335 12870 268
15324 14860 271
14229 14243 152
14083 14321 196
18792 15020 279
10846 14486 276
15745 18461 279
15743 12091 276
17768 17112 279
12196 14357 276
13404 17228 271
18479 10240 279
18001 15671 279
10902 11072 268
15276 13906 271
14543 16776 271
16031 10365 276
17326 10105 276
11644 16985 276
13468 16883 271
12804 16732 276
14304 12600 276
13284 11498 276
10245 10034 242
11155 17760 279
11354 11263 206
13547 18878 279
14569 14670 196
14218 14085 152
18946 12474 279
12320 17009 276
13224 12832 245
15720 13956 271
14028 11031 276
18631 15161 279
15148 15918 253
14915 12240 276
11304 18934 279
13467 15767 271
14461 15455 271
15849 14357 271
11680 10292 268
13848 18470 279
10543 17485 276
17759 15553 279
16761 17140 266
15755 17690 279
17178 12876 276
15087 11383 276
17828 10059 279
15892 15826 222
16220 12824 276
16828 10294 276
13441 13824 245
10892 10623 206
17964 18385 248
15383 13368 271
16577 15815 266
15866 16002 253
11959 10917 268
13123 16381 276
14805 11474 276
11449 12554 263
13805 17367 271
12948 14370 276
13623 13750 214
15507 13009 276
10434 18532 279
10194 14516 276
13588 18198 279
13440 13114 276
18911 17873 261
17930 13202 279
10720 17898 279
11667 11671 82
