1 10 20
100 200 125
201 210 89
900 1000 174
10 10 7
999999 999999 259
1 1 1
904686 951950 507
425561 462807 444
9099 30949 308
58267 102061 351
270105 306017 407
538869 550628 452
307923 340565 384
651742 667627 442
976370 991340 427
747796 773159 468
203320 206181 355
197027 237352 443
568590 574937 377
111985 140521 349
30243 34205 285
882477 891556 445
414246 457637 418
281557 289951 389
767940 807720 468
903773 947957 507
444223 473240 444
479002 503355 426
831310 874508 525
168482 199903 365
972009 978466 383
294593 342267 384
926745 946080 507
81737 94394 333
626256 639831 509
892997 935592 476
132673 158737 383
135706 166512 383
681814 726049 504
478745 517975 470
614900 660080 509
275462 309312 389
324443 345169 384
118190 129133 336
636968 647013 416
263962 270826 407
634322 655916 416
265646 297035 407
775615 793637 437
518747 532240 439
323538 329613 384
591338 640252 509
501559 520085 470
143056 183880 383
512679 559347 452
958827 982306 458
535716 565724 452
123979 128085 331
81731 116214 354
649567 673608 442
641039 642728 416
920326 950577 507
380383 409833 436
182248 188116 347
760113 808485 468
912871 914439 357
332958 372893 441
324581 356265 441
658670 707823 504
439595 443273 356
223060 251927 443
145199 155829 370
485186 498519 426
388626 422676 449
693146 699055 367
203289 226765 386
906707 936092 476
571510 611618 434
744154 771932 468
223653 247669 443
731066 756322 424
349473 367819 410
770343 811600 468
854837 864232 388
175645 206507 365
235318 253729 368
914515 930501 476
357983 367536 410
192833 238903 443
443646 452225 387
278764 305360 389
324056 332536 384
512356 542351 439
612017 633610 509
775899 782154 437
767117 789600 468
310607 350550 441
165744 178032 352
656737 662939 429
191293 214458 373
667151 677953 385
48940 69897 340
998365 998637 277
479079 484370 413
218563 246779 443
794508 843415 525
688573 688985 292
698670 710932 504
669733 681086 385
155719 170859 383
691594 727578 504
177942 222316 386
72836 106430 354
772004 797621 468
630314 643855 416
442745 480311 444
34062 56020 340
591682 640718 509
970097 983275 458
867192 880036 432
258337 296928 407
24206 29791 308
339409 351704 441
133565 142658 375
92122 102246 341
44638 82239 351
772345 788762 437
849500 873953 432
974485 991448 427
722987 766576 424
908289 957993 507
920144 924104 445
956604 997626 458
901068 920610 476
433789 476013 444
522883 546546 408
699830 726897 504
989531 992465 352
301852 311406 371
782341 816226 468
612491 624658 447
107741 123629 349
513800 548579 452
493292 530137 470
35591 35878 324
39128 45386 314
498841 545170 470
489134 525462 470
637538 683756 442
724706 743146 424
376511 415213 449
503595 513198 470
428097 447407 400
267383 279857 407
637149 682815 442
623316 637583 509
51676 87069 351
669724 702838 442
25562 63556 340
678970 684214 380
270143 311612 407
777848 810594 468
663015 693325 442
172587 222184 386
795308 839296 525
154080 157236 383
692751 736869 504
588703 628077 509
881234 915249 476
851036 873654 432
984129 995740 427
187054 202226 360
336526 361656 441
309808 347050 441
680603 697707 442
624389 650009 509
866759 899129 445
854856 862865 388
626649 662993 429
3143 13615 276
907214 940241 507
508336 525805 470
958826 995587 458
194547 202049 360
356048 368688 410
96449 138966 354
396115 425620 449
533906 579816 452
868080 880064 432
870517 882735 432
14688 18886 279
235635 237053 337
619350 622736 372
115428 147532 375
542278 574263 452
125752 126517 318
702576 739757 504
468080 486987 413
457293 490427 444
539472 565253 452
563714 575359 421
918534 920694 432
427832 462056 444
481557 511310 426
139731 171929 383
716479 728101 411
875769 907602 445
397072 438341 449
607774 645997 509
655693 687650 442
701050 706237 504
150214 193442 383
905892 944199 507
459157 477792 444
451362 476191 444
58871 86099 351
435445 442674 400
237468 268946 407
472332 489210 413
82556 118571 354
605376 615891 447
243207 248012 350
823420 828378 419
511377 530568 470
128514 163395 383
393935 429568 449
994646 996183 365
753711 793591 468
230012 245387 443
286446 320300 389
709315 744815 424
70217 102758 351
178152 190713 365
674958 715817 504
347901 354177 379
351855 376484 410
797600 803139 406
635890 671426 442
778238 813578 468
289584 336882 384
875324 904460 445
891868 900967 401
627189 628094 341
533356 556195 452
619288 665375 509
17645 20330 279
278922 301057 389
688106 717154 504
580109 587634 434
500551 514719 470
134975 147662 375
244356 247583 350
695825 713422 504
878184 921325 476
921259 959744 507
791113 802112 468
369917 400450 436
425938 431435 374
77156 91441 338
108724 126373 349
742753 763738 424
117064 128632 336
511841 547955 470
989301 991905 352
566622 597568 434
827909 842173 525
263053 272194 407
882442 929168 476
344481 353578 441
11003 57150 340
843378 886439 432
713822 730534 411
642604 663472 429
308600 335506 384
309295 358845 441
474390 493504 426
737277 757338 424
829410 864564 525
338052 376929 441
427763 467131 444
5686 41022 324
61107 62122 317
847612 872841 432
33524 62924 340
721166 758561 424
641295 679720 442
944756 957584 414
934037 936096 414
162979 178154 352
459614 508228 444
236542 283946 407
602478 632106 509
200731 202605 342
813584 852279 525
790254 820360 468
499691 546296 470
763648 767773 362
590912 602731 403
277025 280425 389
837568 857034 525
854816 854969 251
700853 748684 504
84239 115292 354
296595 305175 371
20567 55780 340
227334 233216 443
431930 438673 387
295193 305192 371
435152 440304 400
26461 69398 340
778291 816680 468
658565 685862 442
10883 42280 324
741085 745704 349
49466 67227 340
784649 820810 468
193864 237062 443
455085 462435 444
478766 526209 470
654876 671808 442
355498 400950 436
459995 503211 444
90507 100215 341
287358 330147 389
939907 952822 414
856677 858192 357
113558 137959 349
480184 503954 426
777442 791571 437
964659 974147 458
859827 865203 357
942478 961802 414
224403 255291 443
761809 800549 468
852792 890352 445
160856 205452 365
39168 40727 306
827002 853133 525
241244 250478 350
598956 607090 403
154864 183938 383
508434 549278 470
783417 829995 468
77705 108917 354
758731 765657 380
290235 306557 371
936644 946706 507
433948 445422 400
338355 367327 441
580049 628721 509
837696 862447 525
805131 811215 406
604902 616288 447
390223 405641 405
208958 238056 443
137674 159754 383
453539 471092 444
635271 647781 416
475616 514900 470
766677 780809 468
371164 410421 449
18266 34267 311
628994 667686 442
164667 167060 352
951632 999951 458
728812 766183 424
621195 635767 509
206971 242613 443
428622 437076 387
425271 429187 374
326219 352687 441
551431 588846 434
386278 390172 436
223864 232030 443
352698 356191 379
980090 994152 427
57831 103022 351
667348 700113 442
243416 273409 407
800504 836706 450
872304 883236 432
895887 915651 476
846759 888465 445
654339 676792 442
159506 197446 370
492798 508572 426
895265 912218 476
330928 337918 366
173413 212783 373
727810 764733 424
76415 86371 351
433407 480679 444
844162 849799 419
170514 180566 365
130827 166668 383
995124 998141 440
918753 922759 445
896629 905747 401
763028 792420 468
393955 402303 405
400651 405816 405
759784 778008 468
399922 412070 449
162181 171741 352
448424 476020 444
451420 466660 444
82144 97026 333
539602 585803 452
143597 146671 357
321513 353965 441
23436 38500 324
867529 878198 432
787851 816946 468
182751 195936 360
623220 634569 509
171314 219320 386
639747 676325 442
570827 616669 447
967507 980301 458
529058 567165 452
251108 264750 407
183505 202826 360
103300 141404 354
74204 112644 354
813235 852027 525
471109 477334 382
621652 661391 509
729595 779592 468
173112 212429 373
601107 643950 509
334552 350748 441
20735 52395 324
429732 432976 387
269426 306751 407
80756 86547 320
565827 566498 284
270741 306384 389
81164 81169 175
945751 949510 383
90332 109751 354
459516 472144 444
473363 475678 382
431008 445001 400
63611 94831 351
132861 181712 383
402491 435730 449
357648 372027 410
305397 325701 384
819454 826283 450
269276 304024 407
539722 560037 452
159687 193371 370
339241 378149 441
803575 813733 406
512236 555695 452
83737 98857 333
993871 995734 365
881926 893799 445
849066 854363 419
749816 763683 424
708399 711692 380
500417 527851 470
855954 883549 432
7384 50780 324
34347 62435 340
375555 420894 449
673705 708004 504
303308 331102 384
174334 176870 334
895789 940358 507
76768 88731 351
407840 443870 449
438396 471038 444
396329 410601 449
502338 540607 470
543951 560741 452
792168 804688 468
979911 988967 427
95162 95873 284
267714 276779 407
407080 444929 449
356216 371960 410
803155 843169 525
697372 713573 504
372714 401240 436
422512 464850 444
809054 824411 450
938770 982366 507
981504 986627 427
558263 565885 421
833192 834166 357
804778 817521 406
245914 291967 407
856306 884677 432
92604 128801 354
176387 203201 365
558235 578738 421
763270 782066 468
951591 964676 414
603115 628598 509
653215 696600 442
851890 853662 357
548918 550640 346
990406 996004 365
283608 283814 252
697882 699675 367
936774 950492 507
471635 507095 426
268843 309760 407
84021 122596 354
516686 557726 452
812416 855142 525
826961 836945 419
4081 6859 262
807514 847199 525
944860 983788 458
349969 362211 410
189314 197090 360
830700 845008 525
479413 484922 413
32764 50586 324
130083 154011 375
647919 658268 429
291967 341207 384
15801 37799 324
815351 829636 450
836292 872465 525
533879 571049 452
951643 988650 458
662649 665846 442
936319 986108 507
662559 684922 442
155568 171029 383
361190 382937 423
157680 164894 370
340279 350924 441
750346 782618 468
600795 637257 509
878063 910121 476
298867 329890 384
465421 500333 426
909270 939529 507
720201 748601 424
517940 552944 452
568 46900 324
70908 87956 351
242216 263734 407
314332 326818 384
114234 151983 375
848745 882707 432
526485 550038 452
190361 214784 373
846715 862547 419
983271 989173 427
202163 235839 443
538616 553586 452
538304 579666 452
690203 723724 504
686496 731312 504
550904 579188 421
552576 560259 421
130005 169586 383
680129 721669 504
929005 946697 507
864978 884746 432
571806 600286 434
201512 237645 443
244919 292335 407
926871 954084 507
224382 228920 368
695599 698070 336
48225 97770 351
465168 492166 413
956823 969350 414
1987 31720 308
68248 79711 351
127745 142050 344
381594 395165 436
217633 248183 443
108654 140063 349
134774 157021 383
22590 33113 308
739334 739961 318
482155 524541 470
346128 349929 366
540889 589459 452
21107 60557 340
82963 100058 333
405022 426803 449
240842 281546 407
831614 835719 388
444658 473759 444
868038 893202 445
329129 370212 441
46846 77662 351
381134 389057 374
481704 484300 382
649493 695870 442
263121 284369 407
58257 96499 351
15767 32158 308
865752 899270 445
765671 768827 468
593909 609837 403
313324 346169 441
315791 318584 353
637876 675323 442
534078 570147 452
467976 495168 426
9146 16887 276
46353 52585 340
802628 803337 282
288144 292156 389
490886 506669 426
987042 994537 396
972428 998066 440
458709 495131 444
544410 550453 452
27459 43427 324
955485 959845 352
60150 100005 351
955819 976404 458
830228 862494 525
459741 479994 444
355297 364068 410
812552 832049 450
493124 497985 395
810183 823449 450
3911 11006 268
58897 85723 351
990698 994784 365
981939 996461 427
115179 130895 349
281066 299768 389
252718 285617 407
942996 953470 414
798351 801222 393
944481 972193 458
664508 685486 442
654208 691968 442
121624 167346 383
555923 557819 346
24420 58410 340
324247 336685 384
639434 683388 442
473196 516527 470
243519 262776 363
767157 812607 468
898361 927074 476
334982 370451 441
322700 345595 384
960168 997082 458
581731 614439 434
333520 361685 441
392344 417681 449
149411 160034 383
203124 252913 443
802783 814627 406
849708 897382 445
101207 105460 341
508924 533749 470
844798 869553 419
879182 905083 445
346586 391859 436
77 27286 308
966769 999834 458
890571 903204 401
516688 562132 452
233193 256992 381
951661 970554 414
660572 688927 442
116689 153694 375
811178 840804 525
434900 446777 400
212587 259374 443
335932 358180 441
223525 250703 443
909840 938419 476
720035 731456 411
741908 788041 468
946431 954019 414
134674 149578 375
968330 995453 458
955740 959828 352
462915 512469 470
163402 201542 365
160649 169378 352
656827 670733 442
113045 127330 349
473567 480493 413
102680 144251 375
514312 542611 439
934487 981815 507
913373 938573 476
51499 51920 247
893025 899895 370
903496 944061 507
440864 478117 444
763716 800714 468
431553 473177 444
236512 256734 368
877795 910602 476
528063 565825 452
840100 862466 419
662517 701717 442
150903 194492 383
217568 244253 443
515796 541751 439
826330 840881 525
743155 768481 468
646484 672244 442
823091 853244 525
232961 246377 381
327723 359331 441
767126 799955 468
136930 151680 375
393197 396452 405
807248 855829 525
491755 530544 470
996306 998165 440
80596 125271 354
231129 253024 381
174696 193447 365
965926 990639 458
860005 877693 432
313434 333299 384
39813 84040 351
53559 69996 335
297797 332515 384
524139 563423 452
88530 114437 354
780788 785674 362
513948 520113 439
976300 987126 427
273528 282626 389
254808 281870 407
986144 996360 396
581867 601438 434
973284 976708 383
838886 874990 432
766057 810320 468
198742 231062 443
52620 67339 335
269210 299628 407
517931 519514 439
741789 750403 393
44381 70432 340
315711 325817 384
39673 61561 340
480423 524359 470
237458 241818 368
334570 381999 441
176566 187844 365
995426 998061 440
706253 719109 411
310033 319047 384
287795 319885 389
517680 551362 452
566780 605688 434
233203 263193 407
675900 705296 504
621433 659405 509
994534 997387 365
915464 918213 383
639366 676011 442
494797 517142 470
789315 824859 468
584200 589730 359
58451 97189 351
260090 265639 407
522122 543028 408
858435 866961 388
674446 707833 504
66713 86533 351
549313 563732 421
952105 959478 414
472522 516576 470
929200 960485 507
429162 462401 444
202561 251554 443
828286 828590 274
533113 557418 452
525976 554324 452
271991 290177 389
328253 342143 366
481405 512618 470
836935 847468 525
619424 653414 509
424333 465719 444
703951 705329 504
326802 327305 291
90942 135631 354
332552 369246 441
2882 18939 279
305657 318396 384
725774 766718 424
836107 845346 525
956353 972032 458
634831 679951 442
125951 135941 344
902949 919127 476
653472 690478 442
796170 805087 406
987114 991986 352
278026 307471 389
982947 985048 383
109804 156015 375
638218 665397 442
460355 491294 444
448208 472087 444
635559 679878 442
687701 728910 504
725089 726782 318
731584 763589 424
543209 562491 452
123851 159863 383
100710 134045 354
480237 520904 470
986655 987455 396
466959 498719 426
461513 464171 369
36480 80517 351
767265 798331 468
820976 846371 525
145564 158191 383
85159 118614 354
321464 362373 441
922284 962262 507
758237 773878 468
440743 467565 444
817781 820034 450
533259 550263 452
71547 118913 354
446774 492513 444
398482 413007 449
778277 817621 468
179363 191331 365
710339 744656 424
850940 869180 419
269825 304862 407
318745 340797 384
144232 170344 383
243935 273895 407
122358 146963 375
17475 26621 282
539429 567559 452
313984 336860 384
201584 238687 443
477994 511031 426
140582 143923 375
636915 674514 442
206803 239396 443
357889 388666 423
947129 992788 458
869799 890025 445
433977 465211 444
357066 365763 410
712741 716563 380
598422 645661 509
317185 328874 384
271796 315024 389
865689 888810 445
575426 584762 434
96109 100150 328
425768 444626 400
822863 859290 525
384316 423046 449
207216 222130 386
638312 682371 442
420046 468501 444
814445 841455 525
246297 281292 407
139953 188428 383
431110 450829 400
482172 525304 470
599998 641650 509
95440 122656 354
398814 417925 449
483306 506897 426
94031 115875 354
644424 654999 385
249829 276392 407
112048 131425 349
255685 258698 345
619928 669898 509
416664 446389 418
931526 978277 507
38330 80494 351
354760 378218 423
439149 460263 387
731144 732582 380
105539 141358 354
236048 262668 368
268118 282791 407
155828 164119 383
22507 48548 324
918029 945178 507
743967 757155 424
42394 83399 351
952405 990700 458
353266 377224 423
972736 983919 427
748152 757098 424
705347 720228 411
52432 66551 340
572354 577370 390
6926 27597 308
237593 253592 368
232832 266314 407
11735 45020 324
97610 143812 375
948684 980051 458
765821 815072 468
515353 520737 439
360470 373097 392
374143 396507 436
83260 128637 354
255977 291736 407
346307 376419 410
121387 156918 383
453164 457234 369
808194 844343 525
133642 141502 344
146534 183101 383
284734 333979 389
85405 104879 341
599103 631234 509
719746 761717 424
372875 403113 436
232920 239065 381
676143 717003 504
676763 712771 504
242405 279004 407
199849 226584 386
887260 929213 476
804283 827483 450
2078 49369 324
962397 983053 458
684873 719715 504
456859 485897 444
368596 398706 436
621262 668716 509
386005 393358 436
752945 777063 468
770763 790412 437
845760 894900 445
735937 778403 468
947778 957153 414
693925 708545 504
387355 433246 449
385990 418031 449
830718 843351 525
674867 722739 504
635240 668413 442
820570 827639 419
244731 253887 350
607320 652220 509
436629 478899 444
518672 525199 439
75648 117044 354
268229 317414 407
654411 702398 442
384956 404363 436
308886 334515 384
224944 230122 368
184831 209107 373
735585 782568 468
1254 46941 324
533482 535731 346
407840 412079 449
373965 418864 449
265513 311980 407
888031 933450 476
292797 306241 371
541533 558660 452
615367 617787 372
131838 163038 383
632141 640156 416
778787 825176 468
268504 317222 407
289632 308992 371
125725 137145 344
981669 984638 383
255366 280653 407
531776 535714 377
288441 294860 389
188485 215886 373
431314 477713 444
730246 779560 468
403822 404935 330
882506 883869 313
739810 760846 424
516649 536330 439
996241 996281 290
845429 866345 419
324311 336012 384
2389 45104 324
544395 572122 452
846809 886404 432
336496 368374 441
571180 581952 390
408704 409475 312
704670 753319 424
538520 583367 452
404035 439472 449