1 10 20
100 200 125
201 210 89
900 1000 174
50 50 25
1 1 1
1 999999 525
222315 601396 470
665740 808781 504
721348 208899 509
620894 624809 385
437148 990946 525
304049 116611 443
964664 159683 525
86573 129389 354
485056 315621 449
881395 346976 525
438919 269885 449
124778 871914 525
422528 362297 449
818995 273440 509
93862 86176 333
692071 830380 504
201776 872015 525
153367 923123 525
80915 774260 509
547932 518062 452
279411 366185 441
634672 758279 504
525867 235449 470
887667 525128 525
551069 283268 470
386308 504193 449
67357 25291 340
890311 489884 525
387587 223511 443
277528 995653 525
309686 969598 525
826033 25666 509
841614 979399 507
948788 922528 507
267865 10925 443
954794 547275 525
377110 589466 470
305555 417181 449
339119 707426 509
942308 404392 525
504898 328617 449
422789 572254 470
353907 313101 441
576343 255698 470
50816 853870 525
251351 874706 525
337674 591589 470
900371 693492 525
570988 849160 525
130225 353057 443
860084 85019 525
900332 751398 525
188689 720091 509
168580 42012 383
941721 110888 525
446403 446620 263
953708 869192 507
533078 821819 509
696497 109421 509
591722 747312 509
477496 843072 525
136223 329374 443
948865 36595 525
22866 34059 308
885754 667294 525
387115 260043 441
752312 801651 468
11442 455205 449
35947 694225 509
497216 977668 525
805112 943618 525
424288 273026 449
327015 957365 525
94845 23512 351
580991 686566 509
285029 572691 470
43844 421251 449
902064 992708 507
457845 439134 387
26767 857803 525
106428 928086 525
632051 858739 525
729737 157697 509
313944 279889 389
851921 811159 525
257557 171238 443
268982 196049 443
444263 595997 470
667618 53313 509
133713 248609 443
739878 932945 525
335504 297926 384
354197 237568 441
290635 326246 384
676701 831605 504
698254 783128 504
273896 844509 525
156072 517838 470
2206 470015 449
797726 368331 509
795378 55283 509
53773 64361 335
765535 498036 509
174562 433153 449
65553 822478 509
195967 319635 443
755424 531470 509
617561 623825 372
769038 422400 509
464275 959943 525
768209 676733 504
743072 42106 509
521242 899143 525
559943 37652 470
883363 871873 432
920186 192946 525
441360 973959 525
257306 206895 443
986199 946071 458
640047 51752 509
768550 350218 509
371386 38179 443
881688 988946 507
662003 164931 509
925550 126278 525
124874 693760 509
803011 867945 525
735865 838457 525
281294 810012 509
876109 164657 525
681885 796295 504
357602 637449 509
770254 129113 509
844343 270658 525
589388 998594 525
322409 872142 525
348813 208000 443
910320 230501 525
711150 86528 509
395431 636701 509
212806 34509 383
330461 530021 470
416659 580530 470
882682 697952 525
904746 758791 525
376813 100836 443
69292 248619 443
738284 353750 509
891935 582627 525
624408 995528 525
581221 946816 525
867670 444238 525
669020 777991 504
674738 380171 509
378723 584373 470
16872 105733 351
618882 861536 525
635753 35541 509
956270 32641 525
247697 375221 441
791431 138714 509
476056 374927 449
387332 728544 509
728677 793472 468
311171 867289 525
789000 406596 509
814105 656670 504
850834 997330 507
948865 39777 525
377501 327589 441
138355 908576 525
433321 271441 449
770112 583279 509
821185 240587 509
615919 68882 470
615807 921554 525
721799 91863 509
810686 109131 509
334611 539363 470
416807 645781 509
406652 205807 443
566581 734961 509
862477 931619 476
732291 325547 509
485601 623996 470
167340 623955 470
532572 114866 470
409600 816888 509
212349 230785 443
57475 828267 509
813870 673281 504
264026 535669 470
279348 74712 443
159004 613958 470
128279 575811 470
773943 49135 509
781617 854729 525
784096 158299 509
786348 30592 509
998050 786153 525
654588 165390 509
924312 187160 525
280255 333912 389
518253 492603 470
564696 575727 421
835074 892770 525
763213 613305 509
428439 42561 449
688016 101648 509
170724 330500 443
677458 944666 525
379634 973279 525
313600 677934 509
131579 614153 470
708526 129629 509
400306 877318 525
809222 324619 509
578682 89478 470
172735 96935 383
96285 737431 509
186867 931359 525
144406 950079 525
544664 87050 470
992639 746884 525
188697 677567 509
591588 866154 525
136439 971222 525
353638 450038 449
649156 999420 525
64191 871886 525
643253 464497 509
263409 452476 449
303320 356296 441
56158 476054 449
453230 152442 449
727689 640096 504
598005 872095 525
590175 142669 470
959144 97020 525
403758 147841 443
774586 995345 525
528199 425229 470
480772 881836 525
875267 644133 525
881257 939457 476
516019 524510 439
918158 293633 525
491190 221478 449
649928 547347 509
211737 617362 470
699789 939425 525
771663 297794 509
325725 876042 525
954667 284869 525
973061 872629 507
946913 261853 525
382179 989316 525
687081 862951 525
385358 76553 443
507084 780819 509
16011 537307 470
819533 448373 509
830939 310724 509
184056 480867 449
858070 395792 525
612434 72064 470
849421 384097 525
369858 175147 443
260139 838729 525
974219 747405 525
225563 435338 449
523462 607741 452
424654 210543 449
470692 324216 449
287096 491980 449
105035 817310 509
29288 924568 525
265683 374431 441
235292 449738 449
369503 607566 470
359734 981936 525
679630 209156 509
366033 563692 470
384302 140376 443
402421 872725 525
887780 142188 525
308063 411242 449
749928 246922 509
135990 734825 509
571137 937289 525
226805 190377 386
754599 770296 468
114945 534486 470
144728 864440 525
498429 28435 449
472006 372367 449
10371 151636 375
581522 890607 525
715327 480028 509
30983 631952 509
352754 432968 449
774139 175021 509
844209 38273 525
936146 980198 507
773097 21489 509
917487 514106 525
211865 186291 373
284403 841013 525
234982 943334 525
705453 247615 509
971768 177459 525
619981 496343 470
843299 201504 525
386950 72831 443
195736 932136 525
218988 62694 386
365104 507331 449
751919 209314 509
545603 688065 509
703716 832904 504
223758 135409 386
347011 435622 449
835903 145618 509
276635 585089 470
88952 496292 449
832703 574924 509
187956 452685 449
71267 31255 340
168393 972420 525
618289 878332 525
418761 837276 509
941026 783865 525
858812 207150 525
507383 404415 449
409419 725303 509
237320 633177 509
860711 98535 525
68799 696615 509
244152 859638 525
281704 847307 525
870134 628612 525
936435 58090 525
595501 521906 452
603548 278098 470
494326 221838 449
156430 427291 449
573318 611660 434
211156 432130 449
818809 232743 509
836545 228229 509
958046 588069 525
375610 818757 509
200808 958612 525
29577 959163 525
818250 825485 450
320675 202590 443
968301 257110 525
260679 563802 470
779015 864227 525
841899 787545 525
600269 512533 452
214836 173587 373
638398 940196 525
605717 971411 525
172939 956466 525
713844 130985 509
58740 89454 351
463947 773751 509
48067 7728 324
732914 380521 509
347417 53589 443
583110 315718 470
310698 843789 525
393724 603917 470
222221 235623 443
905666 336694 525
262361 120502 443
510280 900758 525
60698 630201 509
386374 747841 509
100872 100219 266
393030 159611 443
189672 371181 443
933361 237738 525
378909 180480 443
618259 240530 470
234068 201369 443
556248 58970 470
559362 949971 525
177091 295787 443
699799 82757 509
632480 476364 509
717463 656965 504
891326 292365 525
287166 277700 376
40206 388038 443
377918 433236 449
61853 567590 470
804416 509419 509
319532 697529 509
689898 937790 525
938059 438171 525
653364 8512 509
11345 726930 509
472687 188436 449
22718 686690 509
785396 169402 509
163054 502859 449
826366 54380 509
795224 627737 504
846284 835429 525
15775 224202 386
782869 591831 509
305996 101491 443
101250 139733 354
799019 791148 468
77523 251283 443
743523 245091 509
773998 754867 468
486226 760890 509
943302 23148 525
447580 728699 509
192549 124839 383
745762 533120 509
693422 540986 509
160857 539706 470
376416 690835 509
278113 673489 509
282666 98313 443
774979 898120 525
238045 88204 443
689268 829772 504
853690 946995 507
74863 141894 354
701862 75293 509
902783 159370 525
98440 350363 443
402273 290989 441
989405 148035 525
338313 682828 509
689021 499169 509
222534 579641 470
190004 14851 383
253130 986873 525
113164 542314 470
884993 351208 525
630517 88466 509
180980 998411 525
35461 770047 509
140305 251528 443
845339 43088 525
410897 943779 525
907655 327374 525
748972 897060 525
475408 87285 449
94093 678633 509
100658 830831 509
258274 804865 509
845681 25609 525
305943 958844 525
567922 190937 470
824257 712643 468
793606 519441 509
711054 829067 468
803692 851359 525
594799 163237 470
408651 519900 470
107016 316306 443
847273 370192 525
727571 322681 509
971680 821663 525
515519 586542 452
652494 287997 509
391407 498176 449
313605 211554 443
971224 395731 525
402490 309686 441
622578 196097 470
343332 847837 525
539368 147024 470
699196 134167 509
310260 622051 470
168271 931479 525
938357 15544 525
815875 180133 509
852428 787555 525
1796 367947 443
888301 654290 525
655944 279708 509
666670 483753 509
5467 152099 375
393689 407956 405
975989 530471 525
118257 319321 443
378308 171829 443
980548 591708 525
820199 290809 509
213760 988469 525
736492 666321 504
4013 552368 470
846453 856441 419
854127 848248 357
738592 742429 424
16743 908740 525
536341 197617 470
906698 541807 525
863920 814591 525
949763 839909 507
345062 582224 470
673434 237575 509
754053 653982 504
829282 574252 509
944790 557246 525
76927 195488 383
223567 80939 386
747855 584224 509
451584 601982 470
432473 704381 509
344411 963419 525
613121 880752 525
675241 34024 509
422559 539161 470
848614 886526 432
379070 707881 509
468751 52504 449
945455 737008 525
706485 288942 509
311260 165481 443
846188 388186 525
360968 583959 470
983329 623027 525
168184 434913 449
225009 114861 386
139294 569420 470
78280 266620 443
964376 753520 525
300643 386935 441
806885 149258 509
787666 185955 509
857138 256417 525
752662 316798 509
993424 973352 427
605739 818888 509
653037 966131 525
721279 14005 509
550091 218813 470
151236 718274 509
167930 376244 443
833134 821428 419
459868 425618 400
88048 938448 525
693343 388690 509
325384 500228 449
52152 627254 509
200388 423494 449
883670 953049 507
254496 391299 441
440606 860235 525
724391 93643 509
826366 959874 525
621851 376457 470
178687 773086 509
608935 346617 470
149331 956273 525
168045 123403 383
896096 770296 525
61852 103644 351
158986 901439 525
603871 725342 509
528693 318463 470
663040 926567 525
785717 917536 525
832070 226323 509
291976 70666 443
319966 118342 443
30541 941816 525
9004 209227 383
714903 132143 509
70048 378438 443
88417 752296 509
501840 498717 395
522592 563691 452
602360 195783 470
979334 206231 525
921124 508027 525
38899 98369 351
948798 824615 525
15905 780868 509
50938 307880 443
851534 370903 525
940426 882074 507
826924 463634 509
605505 56032 470
595776 189758 470
434469 198397 449
942053 450513 525
697113 464646 509
528409 299473 470
660428 507743 509
19909 95757 351
529975 58807 470
708329 478773 509
883421 238439 525
259642 448563 449
60523 625380 470
819466 949 509
21659 160595 383
464582 141368 449
216626 60359 386
331125 165299 443
772959 787383 437
615811 470073 470
252029 144220 443
769545 426661 509
166168 303658 443
36622 696142 509
876668 744950 525
174915 760089 509
983388 948760 458
208653 43912 383
574140 542323 452
559064 595798 434
217122 537851 470
251371 433747 449
112414 582495 470
599045 885372 525
369878 729060 509
355445 136111 443
387485 639195 509
76976 553652 470
942852 113597 525
249794 819521 509
372752 938912 525
93815 870344 525
887673 816671 525
428460 976017 525
873198 987524 507
86021 90320 333
525375 337391 470
38271 637788 509
434090 151520 449
523160 803968 509
880580 392810 525
454283 268065 449
32005 531259 470
335921 489061 449
159060 585714 470
822786 531811 509
38831 430806 449
402156 926503 525
761681 344820 509
416726 634880 509
332344 502746 449
239404 371923 441
840136 791879 525
523915 274226 470
943398 561280 525
592398 338183 470
954089 46682 525
120452 500298 449
577940 456372 470
503563 736999 509
556290 840554 525
783015 595121 509
785564 699375 504
35829 547245 470
44195 452554 449
696329 376539 509
955299 935733 507
262666 309640 407
727612 786581 468
583866 185215 470
347861 690468 509
523398 816154 509
737149 643849 504
830656 829293 375
614426 334219 470
80498 684920 509
688977 377717 509
280041 474541 449
77092 830074 509
21787 121286 354
282628 718115 509
12029 752132 509
168053 274695 443
61772 409869 443
575480 159842 470
595084 437545 470
364515 632686 509
253699 101664 443
790739 84355 509
445162 919369 525
932777 39864 525
604290 621755 447
417580 398535 449
96296 494671 449
228609 632286 509
130161 25442 354
350402 142190 443
777573 32659 509
931088 353549 525
442528 20773 449
27596 551816 470
458317 392110 449
698706 226220 509
7978 489445 449
310574 967343 525
408815 757555 509
7207 13105 268
893514 938990 476
411639 989810 525
947865 154453 525
622096 78027 470
179894 486702 449
734420 957466 525
519361 179713 470
825219 476093 509
200485 852814 525
542113 658801 509
244924 240819 337
885020 252902 525
244468 709798 509
734449 653282 504
467353 741656 509
180591 875072 525
680646 106435 509
864882 142717 525
260887 1183 443
220743 440780 449
2090 469367 449
912450 35655 525
649079 737669 504
511747 849563 525
104689 568064 470
22569 349612 443
808882 907588 525
116718 53350 354
131591 851167 525
220837 113148 386
107028 915631 525
988219 301878 525
536270 367306 470
444594 797156 509
368489 179541 443
752140 370578 509
648907 178795 509
406232 812190 509
430669 432183 343
175958 535357 470
514451 198526 470
399173 323333 441
106114 30096 351
890886 237704 525
395467 625927 470
350852 502494 449
541559 853275 525
318576 77829 443
220582 763170 509
389190 589070 470
456915 655534 509
473852 620027 470
834329 394288 509
432217 779202 509
340675 608175 470
314559 855125 525
320905 227936 443
692662 427019 509
258031 583548 470
178927 167702 347
723680 43983 509
670195 779443 504
411463 502976 444
371476 632044 509
780350 760665 468
735318 237265 509
930404 209170 525
857291 764733 525
117662 803713 509
58140 458336 449
926092 372698 525
827665 246997 509
114838 520327 470
188220 372869 443
618079 881351 525
540570 341759 470
439538 724970 509
635406 851000 525
742150 6883 509
483044 522500 470
767547 218362 509
759764 697951 504
941735 131261 525
976888 59397 525
449178 35028 449
31937 375270 443
921929 859601 476
136471 36768 354
894132 324691 525
923840 26417 525
720246 978614 525
882379 159784 525
217789 517786 470
10785 959938 525
524668 8033 470
482438 292215 449
226395 756407 509
504371 168130 449
887667 995463 507
741731 851049 525
544696 287872 470
226319 466625 449
147474 362789 443
17597 555810 470
201684 941436 525
582226 921929 525
434256 464606 444
81714 652044 509
982391 606702 525
611983 507059 470
614734 94421 470
313478 355333 441
850827 332053 525
37668 252699 443
841721 293603 525
103748 386417 443
581474 844270 525
367246 243152 441
721264 384843 509
798962 922947 525
840483 895392 445
359082 274739 441
874202 954999 507
926783 370798 525
75906 52971 335
392061 690639 509
147391 219744 386
560177 512423 452
551796 112049 470
279326 907721 525
405651 383074 436
294138 987124 525
741548 175589 509
744481 462812 509
560431 57648 470
899964 915118 476
953039 259046 525
704062 341447 509
728249 145050 509
712244 804154 468
198020 104306 383
8998 859614 525
324049 569174 470
886241 390049 525
195427 165568 365
297771 601077 470
62846 106113 351
102407 804393 509
281701 846887 525
781410 356336 509
904534 681374 525
271455 371778 441
454624 489721 444
713224 697077 504
634770 425469 509
501231 832789 509
43979 24433 324
206608 368027 443
593607 92850 470
272280 303238 389
258417 84255 443
904315 835466 525
190368 6722 383
154064 472068 449
367813 935473 525
342609 272347 389
131052 128268 344
644124 99880 509
617988 871553 525
796956 252758 509
297022 812391 509
599751 341000 470
836824 806358 450
223231 944635 525
413412 9715 449
247873 186033 443
93970 152188 375
21499 284337 443
673113 175563 509
270609 555130 470
625240 613217 447
341681 270497 389
255689 500010 449
370376 873676 525
371563 681537 509
640638 182789 509
493928 240389 449
523788 844956 525
560952 261223 470
789591 488568 509
270937 551669 470
674601 364906 509
218061 210304 386
163447 891174 525
900070 948260 507
960508 525311 525
75682 302190 443
310012 331371 384
802199 680387 504
205047 173762 365
876128 359890 525
356550 884261 525
600278 394542 470
729217 675434 504
169969 33014 383
164003 440905 449
584682 352808 470
320016 802742 509
563111 997666 525
208121 977386 525
945926 168630 525
16902 21609 279
470819 326913 449
352979 273018 441
521504 72230 470
446779 397633 449
432119 317533 449
281894 546602 470
712074 11111 509
222036 882042 525
558328 900242 525
837151 143010 509
767254 157167 509
945752 844570 507
154834 668077 509
821956 614964 509
836706 838857 525
636572 307525 509
165770 503755 449
94747 201478 383
575985 55730 470
599110 522308 452
373262 881003 525
68910 85336 351
406319 805150 509
481582 964646 525
219597 318734 443
621861 986851 525
990104 81818 525
831421 659142 504
749894 167582 509
274107 586601 470
6439 424883 449
408330 686412 509
928638 503077 525
887889 18828 525
558806 487000 470
541135 932068 525
882207 124250 525
531608 802730 509
443604 527395 470
281582 663200 509
360333 903442 525
164256 350437 443
985259 509881 525
523784 735153 509
677462 312095 509
835958 683900 504
736977 244289 509
884516 179820 525
261570 772406 509
198647 820375 509
773610 253987 509
266648 655817 509
378236 312461 441
972752 336044 525
839855 254334 525
999243 200188 525
157776 677704 509
64829 143035 375
187585 588612 470
392392 865047 525
900706 228351 525
548947 151889 470
472639 433464 444
331708 734208 509
720074 530355 509
68788 493684 449
298546 849640 525
663705 190986 509
162101 636457 509
527029 516160 439
404995 40477 443
230552 562770 470
