1 1 1
1 2 2
1 3 8
999999 999998 259
355700 261780 441
783193 352735 509
481692 473100 413
796043 154014 509
884331 720272 525
810186 832105 450
868607 558977 525
228032 717551 509
879433 278891 525
228846 565860 470
943927 785954 525
831232 957182 525
718608 579151 509
964120 297136 525
758695 343315 509
392195 125364 443
241136 409380 441
161018 978138 525
506091 248106 449
888834 882567 445
879610 590869 525
43729 834666 509
99560 943942 525
644961 684092 442
653322 342481 509
185020 941291 525
747328 667187 504
135070 423253 449
623911 184166 470
224896 472316 449
45241 205970 383
482089 205282 449
523343 780684 509
730130 205389 509
960425 527004 525
952238 524404 525
524292 568288 452
531234 836546 509
691470 544603 509
539725 446612 470
274936 111312 443
11121 194224 383
597075 68001 470
598557 33958 470
396411 68555 443
325631 452260 449
40694 232758 443
998 978486 525
971244 848584 507
756612 775338 468
202378 74763 383
676957 870657 525
855391 78039 525
240979 406917 441
757165 763130 380
608847 296592 470
234068 525782 470
485075 816506 509
232992 826651 509
953596 261332 525
23283 596673 470
230407 580121 470
29752 877029 525
978054 52550 525
627478 572182 509
570644 242141 470
11030 259084 443
427900 746083 509
776884 371832 509
705022 184179 509
984443 974144 427
169157 649507 509
782842 881725 525
761832 161749 509
456641 542280 470
861024 511491 525
999891 78569 525
715508 209608 509
279402 6007 443
202690 470040 449
677058 573070 509
321560 57722 443
425146 875300 525
756745 959129 525
584509 927334 525
321623 983669 525
244298 316671 407
558373 726551 509
933045 834999 525
640118 417252 509
789629 482322 509
26895 652638 509
660826 782929 504
748199 682342 504
893793 218775 525
152906 357413 443
537818 438020 470
756849 784222 468
214744 409765 443
838224 130272 525
884641 552013 525
646419 612418 509
529479 192482 470
847623 697823 525
237602 770466 509
709409 718048 411
562009 949232 525
41477 752022 509
400223 521477 470
698718 99484 509
655059 684781 442
513960 110195 470
43297 82585 351
610614 321502 470
270905 765524 509
385168 28249 443
197700 517126 470
104362 196089 383
938153 534791 525
688959 820284 504
823435 959516 525
572426 740934 509
846997 297479 525
478119 326281 449
935948 984573 507
935156 774958 525
862390 129911 525
731126 958211 525
378595 498478 449
434629 896927 525
169123 448554 449
933833 183725 525
946116 911217 507
652564 78644 509
564125 43702 470
393166 231238 441
56047 544891 470
235945 65515 443
836486 330289 509
990503 213 525
479512 833584 509
635318 407727 509
971597 720589 525
303172 465011 449
581120 636963 509
315308 668810 509
16999 361604 443
919275 778198 525
185041 22703 383
348479 372445 410
473108 22461 449
286348 283519 376
325898 557445 470
147577 967024 525
480730 680484 509
295645 943688 525
29884 424605 449
389662 501880 449
41850 543160 470
620438 504742 470
618509 136637 470
457766 74860 449
407655 900979 525
402680 582446 470
54147 678256 509
137838 337669 443
801357 753868 468
432914 173247 449
916785 610655 525
115034 975022 525
974875 89317 525
396890 576785 470
428640 905588 525
961929 826974 525
105804 13386 351
248135 374006 441
475994 8145 449
89533 353499 443
413420 926552 525
701455 72862 509
209883 628729 509
216206 850958 525
990230 268316 525
346065 986950 525
957877 57298 525
579679 510935 470
520318 302050 470
768070 520089 509
237771 623531 470
480899 128911 449
697153 2465 509
983839 114325 525
605428 229526 470
609784 355693 470
195511 47962 383
601856 742936 509
751997 685754 504
154488 961429 525
695180 270687 509
131029 746141 509
75 23 116
88 78 111
2 66 113
7 65 113
76 58 116
77 17 116
51 39 110
81 56 116
99 63 119
11 3 20
76 82 111
9 26 24
25 95 116
44 78 116
3 53 112
27 70 113
48 92 116
61 25 113
76 49 116
77 45 116
75 74 23
85 72 116
78 23 116
49 83 116
42 76 116
47 97 119
16 23 21
13 49 112
31 62 113
47 63 113
35 48 110
57 4 113
97 48 119
69 38 113
47 17 112
77 83 111
93 72 116
39 95 116
1 21 21
22 10 21
39 92 116
55 61 113
27 8 112
76 84 111
85 68 116
53 26 112
27 9 112
8 1 17
89 15 116
58 29 113
1 31 112
41 22 112
17 11 18
97 52 119
63 54 113
73 88 116
79 12 116
56 82 116
75 82 111
61 95 116
21 37 112
93 55 116
52 89 116
55 44 113
48 74 116
97 29 119
54 69 113
52 97 119
1 2 2
40 17 112
33 43 110
17 92 116
1 19 21
19 11 21
78 29 116
3 78 116
66 73 116
69 6 113
56 47 113
3 4 8
48 74 116
33 62 113
65 98 119
69 22 113
80 89 111
47 88 116
78 89 111
38 25 112
74 34 116
42 51 105
23 99 119
14 24 21
15 80 116
85 50 116
13 43 112
86 88 31
64 89 116
56 23 113
23 22 16
87 13 116
79 59 116
74 44 116
53 46 105
62 69 108
99 55 119
92 47 116
20 35 112
72 34 113
38 68 113
82 3 116
43 66 113
60 4 113
12 36 112
38 81 116
85 65 116
28 46 110
42 34 110
84 44 116
52 36 110
91 73 116
87 33 116
94 36 116
98 30 119
49 45 105
42 35 110
15 5 20
83 45 116
77 69 116
29 86 116
90 44 116
56 36 113
80 95 111
15 55 113
80 53 116
22 62 113
13 17 18
20 22 16
67 67 28
11 58 113
27 12 112
49 69 113
41 26 112
4 65 113
10 75 116
21 46 112
81 8 116
35 82 116
17 8 20
44 83 116
16 90 116
76 17 116
43 41 110
68 11 113
72 76 116
11 92 116
56 69 108
20 35 112
95 58 116
3 60 113
44 33 110
4 10 20
94 15 116
60 26 113
37 80 116
84 52 116
90 42 116
36 18 112
25 59 113
75 27 116
10 24 21
3 70 113
91 93 93
95 88 106
71 99 119
80 70 116
93 83 111
31 28 107
23 89 116
46 63 113
7 55 113
52 70 113
58 81 116
37 9 112
88 74 111
4 56 113
75 54 116
64 75 116
20 94 116
78 72 116
15 37 112
63 38 113
48 49 25
99 47 119
85 91 93
9 8 20
44 31 110
75 5 116
47 49 105
89 98 119
96 86 106
2609 3757 217
1677 2009 180
1177 1757 180
4038 777 238
1333 4084 238
1083 2539 209
2143 3573 217
1295 3208 217
2639 4890 238
1681 2122 180
255 4905 238
3854 1865 217
2079 4601 238
1759 1809 162
875 1967 182
1843 729 182
2539 2720 191
2440 3233 217
4503 1791 238
2857 957 209
3197 107 217
1065 3895 217
4547 4923 197
672 3684 217
2217 4074 238
4749 3150 238
3739 3831 176
1710 776 182
4938 1722 238
2561 4767 238
3587 4229 238
4717 4619 184
4736 331 238
433 2533 209
2911 4442 238
194 4326 238
3548 393 217
3562 4830 238
3778 4847 238
4714 948 238
3717 1233 217
2034 2404 183
3917 3906 145
359 3647 217
464 781 171
4993 1590 238
4257 4547 215
773 2361 182
2292 3784 217
3613 1552 217
3577 646 217
1418 3021 217
1142 1363 182
4539 4985 210
3569 1524 217
1276 4578 238
1442 4312 238
622 2251 182
4132 1021 238
2403 927 182
3855 2406 217
3225 3329 168
1794 3614 217
4079 3607 238
124 3298 217
1798 1973 175
3089 3003 155
3109 3963 238
3722 226 217
886 3814 217
4800 3585 238
3392 881 217
2198 3848 217
2562 193 209
1737 145 182
1200 1298 177
4249 705 238
2042 3826 217
4137 762 238
1875 845 182
473 1405 182
4142 1322 238
4925 3777 238
2651 2359 209
1518 3907 217
4298 4044 202
2036 1754 175
3979 230 217
615 1462 182
1323 1974 180
2456 2108 183
4847 2574 238
2248 2063 183
1072 3684 217
4447 1387 238
3790 2978 217
330 189 144
1121 4465 238
4313 1179 238
931 3078 217
546 4451 238
2525 975 209
1067 2723 209
2836 1166 209
1966 4672 238
1904 195 182
109 1865 182
1723 1148 182
143 1559 182
1390 4453 238
2209 3069 217
3851 810 217
1739 4832 238
1469 1366 172
3662 1227 217
891 210 179
800 4538 238
4717 3401 238
4952 2112 238
4831 415 238
1514 1224 177
3669 1473 217
281 1237 182
1428 114 182
4677 3104 238
3695 1210 217
986 4311 238
2803 476 209
2748 2581 191
4474 3995 215
1087 3658 217
4347 1260 238
425 1969 182
1566 4035 238
2634 2759 173
1627 1356 172
3096 4773 238
4296 1129 238
2921 2786 217
3801 2819 217
2207 2316 183
379 3217 217
4535 4833 197
2760 104 209
3539 1117 217
633 1945 182
4766 524 238
2821 845 209
854 1432 182
1034 333 179
274 1164 182
4113 1957 238
1792 2883 209
3742 4844 238
3105 3271 199
1970 3360 217
4710 565 238
1202 189 182
338 3487 217
933 4098 238
4918 1452 238
3911 4597 238
727 1200 182
4500 743 238
4274 3931 202
2116 2136 126
3908 1151 217
931 1973 182
3473 600 217
4626 2739 238
3328 4826 238
3449 2368 217
508 3633 217
3121 2001 217
2531 3343 217
754 4759 238
3215 4709 238
3067 1202 217
1106 3284 217
4706 2092 238
3629 3526 194
4300 1536 238
3413 129 217
198 1166 182
4044 4198 189
892 1216 182
3098 1354 217
528 4366 238
516 4815 238
3707 1751 217
3467 2179 217
3135 1509 217
4934 2287 238
2971 3663 217
2767 3070 217
3739 488 217
798 4910 238
4416 4830 197
4283 811 238
3206 2399 217
679912 533825 509
557760 954427 525
148086 967747 525
777086 128333 509
940997 149040 525
624316 324265 470
118396 417009 449
99762 818442 509
463828 241739 449
737937 343595 509
152576 118247 375
325610 248849 407
365299 550181 470
699870 868844 525
731254 935938 525
942607 219342 525
73352 715300 509
60137 556315 470
337455 489999 449
433626 800206 509
429013 335724 449
59569 781800 509
981745 240670 525
983172 977624 427
723300 925305 525
733514 503061 509
741268 519946 509
466953 536019 470
467216 714543 509
521759 945307 525
583196 760466 509
524911 268677 470
730507 979019 525
873630 593187 525
996519 46522 525
533248 814520 509
963256 928934 507
255138 390022 441
747907 711894 424
953401 914826 507
904815 971263 507
624500 302508 470
889023 583481 525
833817 709108 468
751883 478686 509
990334 511584 525
322717 498856 449
487517 86062 449
55355 736249 509
145808 430121 449
551677 344183 470
636184 536510 509
58258 44934 340
224874 984488 525
497215 82879 449
273697 464686 449
95907 758613 509
352380 276213 441
238445 826914 509
181785 221901 386
566530 362997 470
325868 631786 509
244925 252247 350
24243 332846 443
16182 963264 525
272251 302369 389
255496 870897 525
95550 758421 509
280973 73406 443
823663 279 509
750928 72697 509
574930 679478 509
536132 521318 408
353608 371608 410
768807 890488 525
24330 117670 354
940879 854163 507
445926 873698 525
713971 587164 509
690031 716683 504
13711 596926 470
966925 721655 525
238657 667284 509
879197 712030 525
265847 850841 525
219015 605705 470
725386 481161 509
837261 187914 509
529590 763946 509
995909 255861 525
701649 280892 509
233244 627972 509
896003 744168 525
973521 774994 525
897484 15584 525
984992 161074 525
929348 238790 525
3458 966088 525
196685 243438 443
42430 291642 443
710243 828033 468
648061 409287 509
624220 327139 470
83820 553208 470
389913 161962 443
110161 693574 509
169323 520404 470
425984 961104 525
178769 934494 525
715338 740207 424
611334 952993 525
724206 282638 509
622011 627945 509
808228 438296 509
442729 473562 444
708071 715486 411
424199 741993 509
505766 164023 449
401638 89241 443
615352 184027 470
854795 462235 525
676583 579411 509
157821 133024 383
531387 29187 470
916428 237840 525
602019 302297 470
830815 47354 509
341413 571728 470
560668 514281 452
406222 976640 525
119550 908864 525
528694 861441 525
260406 749830 509
505138 165206 449
109860 127057 349
136932 621236 470
597549 524551 452
398912 501342 449
492498 163401 449
161622 800174 509
510569 183517 449
978246 138876 525
860865 522017 525
129155 301400 443
998785 707595 525
354577 991752 525
89081 777713 509
771860 581175 509
803052 408542 509
754209 112542 509
436189 635953 509
667043 530028 509
558936 775454 509
77239 714638 509
431586 712638 509
232253 409704 441
961888 609486 525
560534 298326 470
354601 890727 525
659724 484231 509
84268 122566 354
52427 695931 509
938437 785704 525
399839 772638 509
5272 384579 443
535853 316603 470
299546 843335 525
424511 715349 509
556761 461502 470
872087 230457 525
849279 22460 525
257025 842299 525
68188 71624 325
449209 615609 470
964006 376131 525
566554 593378 434
987979 113052 525
151532 909094 525
287269 428005 449
277688 440678 449
238095 514438 470
897129 319004 525
363937 857404 525
851866 498249 525
116761 665316 509
861600 931629 476
464277 806544 509
137177 146540 375
137516 72668 354
57843 160524 383
460394 908568 525
789008 761062 468
894875 641175 525
888674 148641 525
12126 749667 509
224684 363959 443
722470 198867 509
14216 341648 443
638393 949376 525
862875 38401 525
15 89 116
6 70 113
82 7 116
49 24 112
92 55 116
16 72 113
94 41 116
1 94 116
65 86 116
9 87 116
56 90 116
62 68 108
54 4 113
41 82 116
72 23 113
20 67 113
22 21 16
19 61 113
59 92 116
19 55 113
84 73 116
48 44 105
69 65 28
36 32 27
53 73 116
41 1 112
85 40 116
3 88 116
15 43 112
47 14 112
39 48 110
4 22 21
42 6 112
82 37 116
58 42 113
72 6 113
8 43 112
60 72 108
94 67 116
86 20 116
26 94 116
23 29 112
65 48 113
63 86 116
14 89 116
77 55 116
16 50 112
47 32 110
47 80 116
36 23 112
3 49 112
85 90 31
43 5 112
1 5 8
32 96 116
21 81 116
96 54 116
58 78 116
31 34 107
85 66 116
95 20 116
93 57 116
57 15 113
10 55 113
25 95 116
21 38 112
70 54 113
52 56 113
24 70 113
69 29 113
22 68 113
85 51 116
29 8 112
9 74 116
23 83 116
56 96 116
62 55 113
13 11 15
43 1 112
46 40 110
44 69 113
93 51 116
41 90 116
30 9 112
81 11 116
94 92 106
78 58 116
38 20 112
84 74 111
45 27 112
3 99 119
56 24 113
68 68 15
41 70 113
72 57 108
76 56 116
70 17 113
3 7 17
13 50 112
50 90 116
30 31 107
33 80 116
6 44 112
80 99 119
94 37 116
86 85 31
37 69 113
59 55 113
86 22 116
78 26 116
78 71 116
31 35 107
78 41 116
99 31 119
18 75 116
29 43 110
67 55 113
95 76 111
77 30 116
13 6 20
29 16 112
75 56 116
60 27 113
85 99 119
72 91 116
95 27 116
20 39 112
41 84 116
26 20 24
38 91 116
88 33 116
73 43 116
95 80 111
27 7 112
16 1 20
80 32 116
29 10 112
25 26 24
16 32 112
91 51 116
37 86 116
92 54 116
91 84 93
74 94 111
30 78 116
43 34 110
32 71 113
37 25 112
64 35 113
24 56 113
94 43 116
8 76 116
84 10 116
62 39 113
59 90 116
66 54 113
77 94 111
39 5 112
91 88 93
21 63 113
9 25 24
63 96 116
53 33 110
18 51 112
63 88 116
39 21 112
11 96 116
44 69 113
49 72 113
20 7 21
46 49 105
56 70 108
61 67 108
27 41 112
9 7 20
31 47 110
9 21 21
59 98 119
41 79 116
34 91 116
25 19 24
12 2 20
13 80 116
74 4 116
43 34 110
39 79 116
46 60 113
5 17 20
70 7 113
29 4 112
14 91 116
8 39 112
73 44 116
51 8 112
28 98 119
55 5 113
56 90 116
48 18 112
7 27 112
85 53 116
938312 999999 507
985845 999999 440
989278 999999 440
900527 999999 507
965105 999999 458
960213 999999 458
903483 999999 507
944912 999999 458
922054 999999 507
927533 999999 507
972379 999999 440
941318 999999 458
920862 999999 507
958069 999999 458
970251 999999 458
949241 999999 458
933306 999999 507
922719 999999 507
970501 999999 458
983572 999999 440
991314 999999 440
954624 999999 458
968557 999999 458
969761 999999 458
902642 999999 507
939884 999999 458
974399 999999 440
943694 999999 458
919112 999999 507
904304 999999 507
906051 999999 507
988884 999999 440
940744 999999 458
960626 999999 458
945709 999999 458
902122 999999 507
972769 999999 440
967716 999999 458
948459 999999 458
943793 999999 458
988269 999999 440
966683 999999 458
925927 999999 507
926543 999999 507
961542 999999 458
914390 999999 507
901458 999999 507
929519 999999 507
989341 999999 440
935928 999999 507
914111 999999 507
974066 999999 440
976996 999999 440
980979 999999 440
997507 999999 440
903025 999999 507
950651 999999 458
927437 999999 507
980763 999999 440
944954 999999 458
983052 999999 440
988304 999999 440
905522 999999 507
965653 999999 458
950694 999999 458
999475 999999 290
930893 999999 507
955450 999999 458
976687 999999 440
903950 999999 507
937453 999999 507
917450 999999 507
908423 999999 507
999255 999999 396
993874 999999 440
918622 999999 507
940247 999999 458
997920 999999 440
920881 999999 507
944016 999999 458
990103 999999 440
963225 999999 458
919694 999999 507
926008 999999 507
988583 999999 440
955781 999999 458
926846 999999 507
957628 999999 458
949841 999999 458
903671 999999 507
937364 999999 507
992132 999999 440
929563 999999 507
988887 999999 440
933321 999999 507
994361 999999 440
937301 999999 507
929081 999999 507
955906 999999 458
950129 999999 458
945186 999999 458
957758 999999 458
926225 999999 507
950330 999999 458
938902 999999 507
972712 999999 440
969437 999999 458
928959 999999 507
958098 999999 458
916066 999999 507
988822 999999 440
973421 999999 440
906785 999999 507
928972 999999 507
999447 999999 290
928911 999999 507
941174 999999 458
941162 999999 458
941208 999999 458
968554 999999 458
967148 999999 458
970631 999999 458
959323 999999 458
985774 999999 440
945977 999999 458
950318 999999 458
931860 999999 507
956176 999999 458
904866 999999 507
991526 999999 440
992930 999999 440
974921 999999 440
971602 999999 440
994604 999999 440
930873 999999 507
935471 999999 507
978959 999999 440
999681 999999 259
961547 999999 458
997114 999999 440
961821 999999 458
914970 999999 507
958059 999999 458
962369 999999 458
950520 999999 458
918442 999999 507
924757 999999 507
991164 999999 440
936655 999999 507
966447 999999 458
908861 999999 507
967117 999999 458
988876 999999 440
983672 999999 440
972969 999999 440
917334 999999 507
996155 999999 440
941937 999999 458
995537 999999 440
991993 999999 440
900734 999999 507
987201 999999 440
924443 999999 507
936024 999999 507
937749 999999 507
982318 999999 440
995949 999999 440
992546 999999 440
984864 999999 440
961307 999999 458
961127 999999 458
957310 999999 458
952938 999999 458
913784 999999 507
996585 999999 440
987284 999999 440
969933 999999 458
996224 999999 440
993781 999999 440
947895 999999 458
938034 999999 507
967941 999999 458
901287 999999 507
905483 999999 507
981768 999999 440
959009 999999 458
925750 999999 507
954445 999999 458
980461 999999 440
912228 999999 507
961394 999999 458
945538 999999 458
979783 999999 440
952687 999999 458
960067 999999 458
935677 999999 507
951474 999999 458
963737 999999 458
919506 999999 507
964791 999999 458